Homework/Homework-04/E15Process_tb.vcd
$date
	Wed Oct  5 16:25:02 2022
$end
$version
	Icarus Verilog
$end
$timescale
	100ps
$end
$scope module E15Process_TB $end
$var reg 1 ! clk $end
$scope module proc $end
$var wire 1 " addNotSub $end
$var wire 1 ! clk $end
$var wire 4 # storeVal [3:0] $end
$var wire 2 $ src [1:0] $end
$var wire 1 % pcz $end
$var wire 4 & pcRes [3:0] $end
$var wire 4 ' pcIncr [3:0] $end
$var wire 4 ( operand2 [3:0] $end
$var wire 4 ) operand1 [3:0] $end
$var wire 4 * opCode [3:0] $end
$var wire 4 + immData [3:0] $end
$var wire 2 , dst [1:0] $end
$var wire 1 - aluOutputZero $end
$var wire 4 . aluOutput [3:0] $end
$var reg 4 / pc [3:0] $end
$var reg 4 0 r0 [3:0] $end
$var reg 4 1 r1 [3:0] $end
$var reg 4 2 r2 [3:0] $end
$var reg 4 3 r3 [3:0] $end
$var reg 1 4 zFlag $end
$scope module dataALU $end
$var wire 1 " addNotSub $end
$var wire 4 5 dst [3:0] $end
$var wire 4 6 src [3:0] $end
$var wire 1 - zFlag $end
$var wire 4 7 res [3:0] $end
$var wire 1 8 Cout $end
$scope module the_adder $end
$var wire 4 9 A [3:0] $end
$var wire 4 : B [3:0] $end
$var wire 1 ; Cin $end
$var wire 1 < temp2 $end
$var wire 1 = temp1 $end
$var wire 1 > temp0 $end
$var wire 4 ? S [3:0] $end
$var wire 1 8 Cout $end
$scope module first $end
$var wire 1 @ A $end
$var wire 1 A B $end
$var wire 1 ; Cin $end
$var wire 1 > Cout $end
$var wire 1 B S $end
$upscope $end
$scope module fourth $end
$var wire 1 C A $end
$var wire 1 D B $end
$var wire 1 8 Cout $end
$var wire 1 E S $end
$var wire 1 < Cin $end
$upscope $end
$scope module second $end
$var wire 1 F A $end
$var wire 1 G B $end
$var wire 1 > Cin $end
$var wire 1 = Cout $end
$var wire 1 H S $end
$upscope $end
$scope module third $end
$var wire 1 I A $end
$var wire 1 J B $end
$var wire 1 = Cin $end
$var wire 1 < Cout $end
$var wire 1 K S $end
$upscope $end
$upscope $end
$upscope $end
$scope module pcALU $end
$var wire 1 L addNotSub $end
$var wire 4 M dst [3:0] $end
$var wire 4 N src [3:0] $end
$var wire 1 % zFlag $end
$var wire 4 O res [3:0] $end
$var wire 1 P Cout $end
$scope module the_adder $end
$var wire 4 Q A [3:0] $end
$var wire 4 R B [3:0] $end
$var wire 1 S Cin $end
$var wire 1 T temp2 $end
$var wire 1 U temp1 $end
$var wire 1 V temp0 $end
$var wire 4 W S [3:0] $end
$var wire 1 P Cout $end
$scope module first $end
$var wire 1 X A $end
$var wire 1 Y B $end
$var wire 1 S Cin $end
$var wire 1 V Cout $end
$var wire 1 Z S $end
$upscope $end
$scope module fourth $end
$var wire 1 [ A $end
$var wire 1 \ B $end
$var wire 1 P Cout $end
$var wire 1 ] S $end
$var wire 1 T Cin $end
$upscope $end
$scope module second $end
$var wire 1 ^ A $end
$var wire 1 _ B $end
$var wire 1 V Cin $end
$var wire 1 U Cout $end
$var wire 1 ` S $end
$upscope $end
$scope module third $end
$var wire 1 a A $end
$var wire 1 b B $end
$var wire 1 U Cin $end
$var wire 1 T Cout $end
$var wire 1 c S $end
$upscope $end
$upscope $end
$upscope $end
$upscope $end
$upscope $end
$enddefinitions $end
#0
$dumpvars
0c
0b
0a
0`
0_
0^
0]
0\
0[
1Z
0Y
1X
b1 W
0V
0U
0T
0S
b0 R
b1 Q
0P
b1 O
b0 N
b1 M
1L
xK
0J
xI
xH
0G
xF
xE
1D
xC
xB
0A
x@
bx ?
x>
x=
x<
1;
b1000 :
bx 9
x8
bx 7
b111 6
bx 5
x4
bx 3
bx 2
bx 1
bx 0
b0 /
bx .
x-
b0 ,
b111 +
b1001 *
b111 )
bx (
b1 '
b1 &
0%
b0 $
b111 #
0"
0!
$end
#30
1A
1J
1`
1>
b1101 :
1V
bx .
bx 7
bx ?
xB
0%
b10 &
b10 O
b10 W
0Z
b10 #
b10 )
b10 6
x@
xF
xI
xC
b1 ,
b10 +
1Y
bx (
bx 5
bx 9
b1 R
b1 /
b1 N
b111 0
1!
#60
0!
#90
x>
x=
0A
0J
0D
xB
bx .
bx 7
bx ?
xH
b0 :
0V
0c
1Z
0%
b11 &
b11 O
b11 W
1`
0U
x@
xF
xI
xC
b1111 #
b1111 )
b1111 6
bx (
bx 5
bx 9
b11 ,
b1111 +
0Y
1_
b10 R
b10 /
b10 N
b10 1
1!
#120
0!
#150
08
1E
0K
0<
0=
1H
1c
0>
1U
0-
b1011 .
b1011 7
b1011 ?
1B
0A
0G
0J
1D
0%
0`
b1000 :
1V
0@
1F
0I
0C
b100 &
b100 O
b100 W
0Z
b10 (
b10 5
b10 9
b1011 #
b111 )
b111 6
b1110 *
b1 ,
b0 +
1Y
b11 R
b11 /
b11 N
b1111 3
1!
#180
0!
#210
18
1-
0E
1<
1=
0H
b0 #
1>
0B
b0 .
b0 7
b0 ?
0K
0V
0]
1@
1I
1Z
0`
0U
0%
b101 &
b101 O
b101 W
1c
0T
b111 (
b111 5
b111 9
b10 *
b0 ,
b110 +
0Y
0_
1b
b100 R
b100 /
b100 N
04
1!
#240
0!
#270
b1000 #
0-
b1000 .
b1000 7
b1000 ?
1E
1`
1V
1C
b110 &
b110 O
b110 W
0Z
b1111 (
b1111 5
b1111 9
b1110 *
b11 ,
b0 +
1Y
b101 R
b101 /
b101 N
1!
#300
0!
#330
b1000 #
08
0]
1E
0T
b1000 .
b1000 7
b1000 ?
0B
1A
0D
0V
1c
0;
b1 :
b1 )
b1 6
0C
1Z
b111 &
b111 O
b111 W
1`
0U
1"
b111 (
b111 5
b111 9
b1011 *
b0 ,
b1 +
0Y
1_
b110 R
b110 /
b110 N
1!
#360
0!
#390
0c
1P
1T
0]
0B
0U
b1100 #
0X
1a
1[
1`
1>
1=
0<
08
b1100 '
b1100 M
b1100 Q
1A
1G
0J
0D
0V
0H
1K
0-
b1100 .
b1100 7
b1100 ?
1E
1;
b11 :
b11 &
b11 O
b11 W
1Z
0"
b1100 )
b1100 6
0@
0F
0I
1C
b11 *
b1100 +
1Y
b1000 (
b1000 5
b1000 9
b111 R
b111 /
b111 N
b1000 0
1!
#420
0!
#450
1U
0%
0`
1V
0Z
b1010 #
0K
1<
0P
1X
0a
0[
1H
b1010 .
b1010 7
b1010 ?
1E
1J
0D
0]
b1 '
b1 M
b1 Q
b111 :
0T
1F
0C
b100 &
b100 O
b100 W
1c
b10 (
b10 5
b10 9
b1000 )
b1000 6
b1110 *
b1 ,
b0 +
0b
b11 R
b11 /
b11 N
1!
#480
0!
#510
b0 #
18
1-
0H
b0 .
b0 7
b0 ?
0E
0V
0]
0F
1C
1Z
0`
0U
0%
b101 &
b101 O
b101 W
1c
0T
b1000 (
b1000 5
b1000 9
b10 *
b0 ,
b110 +
0Y
0_
1b
b100 R
b100 /
b100 N
1!
#540
0!
#570
b111 #
1B
1H
0-
b111 .
b111 7
b111 ?
1K
1`
1V
1@
1F
1I
b110 &
b110 O
b110 W
0Z
b1111 (
b1111 5
b1111 9
b1110 *
b11 ,
b0 +
1Y
b101 R
b101 /
b101 N
1!
#600
0!
#630
08
b1001 #
1E
0=
0<
0]
0>
0H
b1001 .
b1001 7
b1001 ?
0K
0T
0G
0J
0V
1c
0;
b1 :
b1 )
b1 6
0@
0F
0I
1Z
b111 &
b111 O
b111 W
1`
0U
1"
b1000 (
b1000 5
b1000 9
b1011 *
b0 ,
b1 +
0Y
1_
b110 R
b110 /
b110 N
1!
#660
0!
#690
0c
1P
b1101 #
1T
0]
08
1B
1=
1K
b1101 .
b1101 7
b1101 ?
1E
0U
0X
1a
1[
1`
1>
b1100 '
b1100 M
b1100 Q
1A
1G
0J
0D
0V
1;
b11 :
b11 &
b11 O
b11 W
1Z
0"
b1100 )
b1100 6
1@
b11 *
b1100 +
1Y
b1001 (
b1001 5
b1001 9
b111 R
b111 /
b111 N
b1001 0
1!
#720
0!
#750
1U
0%
0`
1V
0>
0Z
b1001 #
0K
1<
0P
0A
1X
0a
0[
1B
0H
b1001 .
b1001 7
b1001 ?
1E
1J
0D
0]
b1 '
b1 M
b1 Q
b110 :
0T
0@
1F
0C
b100 &
b100 O
b100 W
1c
b10 (
b10 5
b10 9
b1001 )
b1001 6
b1110 *
b1 ,
b0 +
0b
b11 R
b11 /
b11 N
1!
#780
0!
#810
1-
1<
0K
b0 #
1>
1=
18
0B
0H
b0 .
b0 7
b0 ?
0E
0V
0]
1@
0F
1C
1Z
0`
0U
0%
b101 &
b101 O
b101 W
1c
0T
b1001 (
b1001 5
b1001 9
b10 *
b0 ,
b110 +
0Y
0_
1b
b100 R
b100 /
b100 N
1!
#840
0!
#870
b110 #
1H
0-
b110 .
b110 7
b110 ?
1K
1`
1V
1F
1I
b110 &
b110 O
b110 W
0Z
b1111 (
b1111 5
b1111 9
b1110 *
b11 ,
b0 +
1Y
b101 R
b101 /
b101 N
1!
#900
0!
#930
08
1E
b1010 #
0=
0<
0]
1H
0K
0T
b1010 .
b1010 7
b1010 ?
0B
1A
0G
0J
0V
1c
0;
b1 :
b1 )
b1 6
0F
0I
1Z
b111 &
b111 O
b111 W
1`
0U
1"
b1001 (
b1001 5
b1001 9
b1011 *
b0 ,
b1 +
0Y
1_
b110 R
b110 /
b110 N
1!
#960
0!
#990
0c
1P
1T
0]
1K
08
0B
0<
0-
1E
0U
b1110 #
0X
1a
1[
1`
1>
1=
b1100 '
b1100 M
b1100 Q
1A
1G
0J
0D
0V
b1110 .
b1110 7
b1110 ?
1H
1;
b11 :
b11 &
b11 O
b11 W
1Z
0"
b1100 )
b1100 6
0@
1F
b11 *
b1100 +
1Y
b1010 (
b1010 5
b1010 9
b111 R
b111 /
b111 N
b1010 0
1!
#1020
0!
#1050
1U
0%
0`
1V
0H
0Z
b1000 #
0K
1<
0P
0G
1X
0a
0[
b1000 .
b1000 7
b1000 ?
1E
1J
0D
0]
b1 '
b1 M
b1 Q
b101 :
0T
0C
b100 &
b100 O
b100 W
1c
b10 (
b10 5
b10 9
b1010 )
b1010 6
b1110 *
b1 ,
b0 +
0b
b11 R
b11 /
b11 N
1!
#1080
0!
#1110
b0 #
18
1-
b0 .
b0 7
b0 ?
0E
0V
0]
1C
1Z
0`
0U
0%
b101 &
b101 O
b101 W
1c
0T
b1010 (
b1010 5
b1010 9
b10 *
b0 ,
b110 +
0Y
0_
1b
b100 R
b100 /
b100 N
1!
#1140
0!
#1170
b101 #
1B
0-
b101 .
b101 7
b101 ?
1K
1`
1V
1@
1I
b110 &
b110 O
b110 W
0Z
b1111 (
b1111 5
b1111 9
b1110 *
b11 ,
b0 +
1Y
b101 R
b101 /
b101 N
1!
#1200
0!
#1230
08
0=
b1011 #
1E
1H
0<
0]
0>
b1011 .
b1011 7
b1011 ?
0K
0T
0J
0V
1c
0;
b1 :
b1 )
b1 6
0@
0I
1Z
b111 &
b111 O
b111 W
1`
0U
1"
b1010 (
b1010 5
b1010 9
b1011 *
b0 ,
b1 +
0Y
1_
b110 R
b110 /
b110 N
1!
#1260
0!
#1290
0c
1P
b1111 #
1T
0]
08
1B
1=
1K
b1111 .
b1111 7
b1111 ?
1E
0U
0X
1a
1[
1`
1>
b1100 '
b1100 M
b1100 Q
1A
1G
0J
0D
0V
1;
b11 :
b11 &
b11 O
b11 W
1Z
0"
b1100 )
b1100 6
1@
b11 *
b1100 +
1Y
b1011 (
b1011 5
b1011 9
b111 R
b111 /
b111 N
b1011 0
1!
#1320
0!
#1350
0=
1U
0%
0`
1V
0>
1H
0Z
b111 #
1K
0<
0P
0A
0G
1X
0a
0[
1B
b111 .
b111 7
b111 ?
0E
1J
0D
0]
b1 '
b1 M
b1 Q
b100 :
0T
0@
0C
b100 &
b100 O
b100 W
1c
b10 (
b10 5
b10 9
b1011 )
b1011 6
b1110 *
b1 ,
b0 +
0b
b11 R
b11 /
b11 N
1!
#1380
0!
#1410
18
1-
1<
0K
1=
0H
b0 #
1>
0B
b0 .
b0 7
b0 ?
0E
0V
0]
1@
1C
1Z
0`
0U
0%
b101 &
b101 O
b101 W
1c
0T
b1011 (
b1011 5
b1011 9
b10 *
b0 ,
b110 +
0Y
0_
1b
b100 R
b100 /
b100 N
1!
#1440
0!
#1470
b100 #
0-
b100 .
b100 7
b100 ?
1K
1`
1V
1I
b110 &
b110 O
b110 W
0Z
b1111 (
b1111 5
b1111 9
b1110 *
b11 ,
b0 +
1Y
b101 R
b101 /
b101 N
1!
#1500
0!
#1530
08
1E
b1100 #
0<
0]
1K
0T
b1100 .
b1100 7
b1100 ?
0B
1A
0J
0V
1c
0;
b1 :
b1 )
b1 6
0I
1Z
b111 &
b111 O
b111 W
1`
0U
1"
b1011 (
b1011 5
b1011 9
b1011 *
b0 ,
b1 +
0Y
1_
b110 R
b110 /
b110 N
1!
#1560
0!
#1590
1-
0c
1P
1T
0]
0E
0B
18
0U
b0 #
0X
1a
1[
1`
1>
1=
1<
b1100 '
b1100 M
b1100 Q
1A
1G
0J
0D
0V
0H
b0 .
b0 7
b0 ?
0K
1;
b11 :
b11 &
b11 O
b11 W
1Z
0"
b1100 )
b1100 6
0@
0F
1I
b11 *
b1100 +
1Y
b1100 (
b1100 5
b1100 9
b111 R
b111 /
b111 N
b1100 0
1!
#1620
0!
#1650
1U
0%
0`
1V
0<
08
0Z
b110 #
0P
1X
0a
0[
1H
1K
0-
b110 .
b110 7
b110 ?
0E
0J
0D
0]
b1 '
b1 M
b1 Q
b11 :
0T
1F
0I
0C
b100 &
b100 O
b100 W
1c
b10 (
b10 5
b10 9
b1100 )
b1100 6
b1110 *
b1 ,
b0 +
0b
b11 R
b11 /
b11 N
1!
#1680
0!
#1710
18
1-
b0 #
1<
0H
0K
b0 .
b0 7
b0 ?
0E
0V
0]
0F
1I
1C
1Z
0`
0U
0%
b101 &
b101 O
b101 W
1c
0T
b1100 (
b1100 5
b1100 9
b10 *
b0 ,
b110 +
0Y
0_
1b
b100 R
b100 /
b100 N
1!
#1740
0!
#1770
b11 #
1B
0-
b11 .
b11 7
b11 ?
1H
1`
1V
1@
1F
b110 &
b110 O
b110 W
0Z
b1111 (
b1111 5
b1111 9
b1110 *
b11 ,
b0 +
1Y
b101 R
b101 /
b101 N
1!
#1800
0!
#1830
08
1E
0<
b1101 #
1K
0=
0]
0>
b1101 .
b1101 7
b1101 ?
0H
0T
0G
0V
1c
0;
b1 :
b1 )
b1 6
0@
0F
1Z
b111 &
b111 O
b111 W
1`
0U
1"
b1100 (
b1100 5
b1100 9
b1011 *
b0 ,
b1 +
0Y
1_
b110 R
b110 /
b110 N
1!
#1860
0!
#1890
0c
1P
b1 #
1T
0]
1<
18
0-
1B
1=
0K
b1 .
b1 7
b1 ?
0E
0U
0X
1a
1[
1`
1>
b1100 '
b1100 M
b1100 Q
1A
1G
0J
0D
0V
1;
b11 :
b11 &
b11 O
b11 W
1Z
0"
b1100 )
b1100 6
1@
b11 *
b1100 +
1Y
b1101 (
b1101 5
b1101 9
b111 R
b111 /
b111 N
b1101 0
1!
#1920
0!
#1950
1U
0%
0`
1V
0>
0<
08
0Z
b101 #
0P
0A
1X
0a
0[
1B
0H
1K
b101 .
b101 7
b101 ?
0E
0J
0D
0]
b1 '
b1 M
b1 Q
b10 :
0T
0@
1F
0I
0C
b100 &
b100 O
b100 W
1c
b10 (
b10 5
b10 9
b1101 )
b1101 6
b1110 *
b1 ,
b0 +
0b
b11 R
b11 /
b11 N
1!
#1980
0!
#2010
1-
18
b0 #
1>
1=
1<
0B
0H
0K
b0 .
b0 7
b0 ?
0E
0V
0]
1@
0F
1I
1C
1Z
0`
0U
0%
b101 &
b101 O
b101 W
1c
0T
b1101 (
b1101 5
b1101 9
b10 *
b0 ,
b110 +
0Y
0_
1b
b100 R
b100 /
b100 N
1!
#2040
0!
#2070
b10 #
0-
b10 .
b10 7
b10 ?
1H
1`
1V
1F
b110 &
b110 O
b110 W
0Z
b1111 (
b1111 5
b1111 9
b1110 *
b11 ,
b0 +
1Y
b101 R
b101 /
b101 N
1!
#2100
0!
#2130
08
1E
0<
1K
b1110 #
0=
0]
1H
0T
b1110 .
b1110 7
b1110 ?
0B
1A
0G
0V
1c
0;
b1 :
b1 )
b1 6
0F
1Z
b111 &
b111 O
b111 W
1`
0U
1"
b1101 (
b1101 5
b1101 9
b1011 *
b0 ,
b1 +
0Y
1_
b110 R
b110 /
b110 N
1!
#2160
0!
#2190
0c
1P
1T
0]
0-
0K
18
0B
1<
0E
0U
b10 #
0X
1a
1[
1`
1>
1=
b1100 '
b1100 M
b1100 Q
1A
1G
0J
0D
0V
b10 .
b10 7
b10 ?
1H
1;
b11 :
b11 &
b11 O
b11 W
1Z
0"
b1100 )
b1100 6
0@
1F
b11 *
b1100 +
1Y
b1110 (
b1110 5
b1110 9
b111 R
b111 /
b111 N
b1110 0
1!
#2220
0!
#2250
1U
0%
0`
1V
0H
0<
08
0Z
b100 #
0P
0G
1X
0a
0[
1K
b100 .
b100 7
b100 ?
0E
0J
0D
0]
b1 '
b1 M
b1 Q
b1 :
0T
0I
0C
b100 &
b100 O
b100 W
1c
b10 (
b10 5
b10 9
b1110 )
b1110 6
b1110 *
b1 ,
b0 +
0b
b11 R
b11 /
b11 N
1!
#2280
0!
#2310
18
1-
b0 #
1<
0K
b0 .
b0 7
b0 ?
0E
0V
0]
1I
1C
1Z
0`
0U
0%
b101 &
b101 O
b101 W
1c
0T
b1110 (
b1110 5
b1110 9
b10 *
b0 ,
b110 +
0Y
0_
1b
b100 R
b100 /
b100 N
1!
#2340
0!
#2370
b1 #
0-
b1 .
b1 7
b1 ?
1B
1`
1V
1@
b110 &
b110 O
b110 W
0Z
b1111 (
b1111 5
b1111 9
b1110 *
b11 ,
b0 +
1Y
b101 R
b101 /
b101 N
1!
#2400
0!
#2430
08
1E
0<
1K
b1111 #
0=
b1111 .
b1111 7
b1111 ?
1H
0]
0>
0T
0V
1c
0;
b1 )
b1 6
0@
1Z
b111 &
b111 O
b111 W
1`
0U
1"
b1110 (
b1110 5
b1110 9
b1011 *
b0 ,
b1 +
0Y
1_
b110 R
b110 /
b110 N
1!
#2460
0!
#2490
0c
1P
b11 #
1T
0]
1<
18
1B
1=
0K
b11 .
b11 7
b11 ?
0E
0U
0X
1a
1[
1`
1>
b1100 '
b1100 M
b1100 Q
1A
1G
0J
0D
0V
1;
b11 :
b11 &
b11 O
b11 W
1Z
0"
b1100 )
b1100 6
1@
b11 *
b1100 +
1Y
b1111 (
b1111 5
b1111 9
b111 R
b111 /
b111 N
b1111 0
1!
#2520
0!
#2550
0=
1U
0%
0`
1V
0>
1H
0<
08
0Z
b11 #
0P
0A
0G
1X
0a
0[
1B
0K
b11 .
b11 7
b11 ?
0E
0J
0D
0]
b1 '
b1 M
b1 Q
b0 :
0T
0@
0I
0C
b100 &
b100 O
b100 W
1c
b10 (
b10 5
b10 9
b1111 )
b1111 6
b1110 *
b1 ,
b0 +
0b
b11 R
b11 /
b11 N
1!
#2580
0!
#2610
18
1-
1<
1=
0H
b0 #
1>
0B
0K
b0 .
b0 7
b0 ?
0E
0V
0]
1@
1I
1C
1Z
0`
0U
0%
b101 &
b101 O
b101 W
1c
0T
b1111 (
b1111 5
b1111 9
b10 *
b0 ,
b110 +
0Y
0_
1b
b100 R
b100 /
b100 N
1!
#2640
0!
#2670
1`
1V
b110 &
b110 O
b110 W
0Z
b1110 *
b11 ,
b0 +
1Y
b101 R
b101 /
b101 N
1!
#2700
0!
#2730
b0 #
0]
0T
1-
b0 .
b0 7
b0 ?
0B
1A
0V
1c
0;
b1 :
b1 )
b1 6
1Z
b111 &
b111 O
b111 W
1`
0U
1"
b1011 *
b0 ,
b1 +
0Y
1_
b110 R
b110 /
b110 N
14
1!
#2760
0!
#2790
1]
1T
0%
0c
0B
1U
b100 #
0`
1>
1=
0<
08
1A
1G
0J
0D
1V
0H
1K
0-
b100 .
b100 7
b100 ?
0E
1;
b11 :
b1000 &
b1000 O
b1000 W
0Z
0"
b1100 )
b1100 6
0@
0F
0I
0C
b11 *
b1100 +
1Y
b0 (
b0 5
b0 9
b111 R
b111 /
b111 N
b0 0
1!
#2820
0!
#2850
18
x-
1<
xB
xH
xK
bx .
bx 7
bx ?
xE
1J
1D
b1111 :
0V
x@
xF
xI
xC
1Z
0`
0U
0c
0T
0%
b1001 &
b1001 O
b1001 W
1]
0P
b0 #
bx (
bx 5
bx 9
b0 )
b0 6
b1001 *
b10 ,
b0 +
0Y
0_
0b
1\
b1000 R
b1000 /
b1000 N
1!
#2880
0!
#2910
1-
0B
0H
0K
b0 .
b0 7
b0 ?
0E
0`
0V
0X
0@
0F
0I
0C
b1001 &
b1001 O
b1001 W
1Z
b0 '
b0 M
b0 Q
b0 #
b0 (
b0 5
b0 9
b0 *
b0 ,
1Y
b1001 R
b1001 /
b1001 N
b0 2
1!
