Homework/Homework_02/hw2c/alu_tb.vcd
$date
	Wed Sep 21 23:04:02 2022
$end
$version
	Icarus Verilog
$end
$timescale
	100ps
$end
$scope module alu_tb $end
$var wire 4 ! S_expected [3:0] $end
$var wire 4 " S_actual [3:0] $end
$var reg 4 # A [3:0] $end
$var reg 4 $ B [3:0] $end
$var reg 3 % Op [2:0] $end
$var integer 32 & ia [31:0] $end
$var integer 32 ' ib [31:0] $end
$var integer 32 ( iop [31:0] $end
$scope module my_alu $end
$var wire 4 ) A [3:0] $end
$var wire 4 * AND [3:0] $end
$var wire 4 + B [3:0] $end
$var wire 4 , OR [3:0] $end
$var wire 3 - Op [2:0] $end
$var wire 4 . selected_B [3:0] $end
$var wire 1 / dispose $end
$var wire 4 0 SUM [3:0] $end
$var wire 4 1 SLT [3:0] $end
$var wire 4 2 S [3:0] $end
$scope module FA1 $end
$var wire 4 3 A [3:0] $end
$var wire 4 4 B [3:0] $end
$var wire 1 5 Cin $end
$var wire 4 6 S [3:0] $end
$var wire 1 / Cout $end
$var wire 1 7 C3 $end
$var wire 1 8 C2 $end
$var wire 1 9 C1 $end
$scope module FA1 $end
$var wire 1 : A $end
$var wire 1 ; B $end
$var wire 1 5 Cin $end
$var wire 1 9 Cout $end
$var wire 1 < S $end
$upscope $end
$scope module FA2 $end
$var wire 1 = A $end
$var wire 1 > B $end
$var wire 1 9 Cin $end
$var wire 1 8 Cout $end
$var wire 1 ? S $end
$upscope $end
$scope module FA3 $end
$var wire 1 @ A $end
$var wire 1 A B $end
$var wire 1 8 Cin $end
$var wire 1 7 Cout $end
$var wire 1 B S $end
$upscope $end
$scope module FA4 $end
$var wire 1 C A $end
$var wire 1 D B $end
$var wire 1 7 Cin $end
$var wire 1 / Cout $end
$var wire 1 E S $end
$upscope $end
$upscope $end
$upscope $end
$scope task check $end
$var reg 4 F a [3:0] $end
$var reg 4 G actual [3:0] $end
$var reg 4 H b [3:0] $end
$var reg 4 I expected [3:0] $end
$var reg 3 J op [2:0] $end
$upscope $end
$scope task test $end
$var reg 4 K a [3:0] $end
$var reg 4 L b [3:0] $end
$var reg 3 M op [2:0] $end
$upscope $end
$upscope $end
$enddefinitions $end
#0
$dumpvars
bx M
bx L
bx K
bx J
bx I
bx H
bx G
bx F
0E
0D
0C
0B
0A
0@
0?
0>
0=
0<
0;
0:
09
08
07
b0 6
05
b0 4
b0 3
b0 2
b0 1
b0 0
0/
b0 .
b0 -
b0 ,
b0 +
b0 *
b0 )
b0 (
b11111111111111111111111111111000 '
b11111111111111111111111111111000 &
b0 %
b0 $
b0 #
b0 "
b0 !
$end
#200
b1000 L
b1000 K
b0 M
#400
1/
b1000 "
b1000 2
b0 1
b0 0
b0 6
0E
b1000 !
1D
b1000 *
b1000 .
b1000 4
b1000 ,
1C
b1000 $
b1000 +
b1000 #
b1000 )
b1000 3
#600
b11111111111111111111111111111001 '
b1000 I
b1000 G
b1000 H
b1000 F
b0 J
#800
b1001 L
#1000
b1 0
b1 6
1<
1;
b1001 ,
b1001 .
b1001 4
b1001 $
b1001 +
#1200
b11111111111111111111111111111010 '
b1001 H
#1400
b1010 L
#1600
0<
b10 0
b10 6
1?
0;
1>
b1010 ,
b1010 .
b1010 4
b1010 $
b1010 +
#1800
b11111111111111111111111111111011 '
b1010 H
#2000
b1011 L
#2200
b11 0
b11 6
1<
1;
b1011 ,
b1011 .
b1011 4
b1011 $
b1011 +
#2400
b11111111111111111111111111111100 '
b1011 H
#2600
b1100 L
#2800
0<
0?
b100 0
b100 6
1B
0;
0>
1A
b1100 ,
b1100 .
b1100 4
b1100 $
b1100 +
#3000
b11111111111111111111111111111101 '
b1100 H
#3200
b1101 L
#3400
b101 0
b101 6
1<
1;
b1101 ,
b1101 .
b1101 4
b1101 $
b1101 +
#3600
b11111111111111111111111111111110 '
b1101 H
#3800
b1110 L
#4000
0<
b110 0
b110 6
1?
0;
1>
b1110 ,
b1110 .
b1110 4
b1110 $
b1110 +
#4200
b11111111111111111111111111111111 '
b1110 H
#4400
b1111 L
#4600
b111 0
b111 6
1<
1;
b1111 ,
b1111 .
b1111 4
b1111 $
b1111 +
#4800
b0 '
b1111 H
#5000
b0 L
#5200
b1 1
0/
0<
0?
0B
b1000 0
b1000 6
1E
b0 "
b0 2
b0 !
0;
0>
0A
0D
b1000 ,
b0 *
b0 .
b0 4
b0 $
b0 +
#5400
b1 '
b0 I
b0 G
b0 H
#5600
b1 L
#5800
b1001 0
b1001 6
1<
1;
b1001 ,
b1 .
b1 4
b1 $
b1 +
#6000
b10 '
b1 H
#6200
b10 L
#6400
0<
b1010 0
b1010 6
1?
0;
1>
b1010 ,
b10 .
b10 4
b10 $
b10 +
#6600
b11 '
b10 H
#6800
b11 L
#7000
b1011 0
b1011 6
1<
1;
b1011 ,
b11 .
b11 4
b11 $
b11 +
#7200
b100 '
b11 H
#7400
b100 L
#7600
0<
0?
b1100 0
b1100 6
1B
0;
0>
1A
b1100 ,
b100 .
b100 4
b100 $
b100 +
#7800
b101 '
b100 H
#8000
b101 L
#8200
b1101 0
b1101 6
1<
1;
b1101 ,
b101 .
b101 4
b101 $
b101 +
#8400
b110 '
b101 H
#8600
b110 L
#8800
0<
b1110 0
b1110 6
1?
0;
1>
b1110 ,
b110 .
b110 4
b110 $
b110 +
#9000
b111 '
b110 H
#9200
b111 L
#9400
b1111 0
b1111 6
1<
1;
b1111 ,
b111 .
b111 4
b111 $
b111 +
#9600
b11111111111111111111111111111001 &
b11111111111111111111111111111000 '
b111 H
#9800
b1000 L
b1001 K
#10000
0?
b0 1
1/
0B
0E
09
b1000 "
b1000 2
b1 0
b1 6
1<
b1000 !
0;
0>
0A
1D
b1001 ,
b1000 .
b1000 4
b1000 *
1:
b1000 $
b1000 +
b1001 #
b1001 )
b1001 3
#10200
b11111111111111111111111111111001 '
b1000 I
b1000 G
b1000 H
b1001 F
#10400
b1001 L
#10600
1?
19
b10 0
b10 6
0<
b1001 "
b1001 2
b1001 !
1;
b1001 *
b1001 .
b1001 4
b1001 $
b1001 +
#10800
b11111111111111111111111111111010 '
b1001 I
b1001 G
b1001 H
#11000
b1010 L
#11200
09
0B
1<
b11 0
b11 6
1?
08
b1000 "
b1000 2
b1000 !
0;
1>
b1011 ,
b1000 *
b1010 .
b1010 4
b1010 $
b1010 +
#11400
b11111111111111111111111111111011 '
b1000 I
b1000 G
b1010 H
#11600
b1011 L
#11800
1B
18
0?
19
b100 0
b100 6
0<
b1001 "
b1001 2
b1001 !
1;
b1001 *
b1011 .
b1011 4
b1011 $
b1011 +
#12000
b11111111111111111111111111111100 '
b1001 I
b1001 G
b1011 H
#12200
b1100 L
#12400
b0 1
09
0E
1<
0?
08
b101 0
b101 6
1B
07
b1000 "
b1000 2
b1000 !
0;
0>
1A
b1101 ,
b1000 *
b1100 .
b1100 4
b1100 $
b1100 +
#12600
b11111111111111111111111111111101 '
b1000 I
b1000 G
b1100 H
#12800
b1101 L
#13000
1?
19
b110 0
b110 6
0<
b1001 "
b1001 2
b1001 !
1;
b1001 *
b1101 .
b1101 4
b1101 $
b1101 +
#13200
b11111111111111111111111111111110 '
b1001 I
b1001 G
b1101 H
#13400
b1110 L
#13600
b0 1
0E
07
09
1B
1<
b111 0
b111 6
1?
08
b1000 "
b1000 2
b1000 !
0;
1>
b1111 ,
b1000 *
b1110 .
b1110 4
b1110 $
b1110 +
#13800
b11111111111111111111111111111111 '
b1000 I
b1000 G
b1110 H
#14000
b1111 L
#14200
b1 1
1E
17
0B
18
0?
19
b1000 0
b1000 6
0<
b1001 "
b1001 2
b1001 !
1;
b1001 *
b1111 .
b1111 4
b1111 $
b1111 +
#14400
b0 '
b1001 I
b1001 G
b1111 H
#14600
b0 L
#14800
0/
09
b1 1
1<
0?
08
0B
07
b1001 0
b1001 6
1E
b0 "
b0 2
b0 !
0;
0>
0A
0D
b1001 ,
b0 *
b0 .
b0 4
b0 $
b0 +
#15000
b1 '
b0 I
b0 G
b0 H
#15200
b1 L
#15400
1?
19
b1010 0
b1010 6
0<
b1 "
b1 2
b1 !
1;
b1 *
b1 .
b1 4
b1 $
b1 +
#15600
b10 '
b1 I
b1 G
b1 H
#15800
b10 L
#16000
09
0B
1<
b1011 0
b1011 6
1?
08
b0 "
b0 2
b0 !
0;
1>
b1011 ,
b0 *
b10 .
b10 4
b10 $
b10 +
#16200
b11 '
b0 I
b0 G
b10 H
#16400
b11 L
#16600
1B
18
0?
19
b1100 0
b1100 6
0<
b1 "
b1 2
b1 !
1;
b1 *
b11 .
b11 4
b11 $
b11 +
#16800
b100 '
b1 I
b1 G
b11 H
#17000
b100 L
#17200
0/
b1 1
09
1E
1<
0?
08
b1101 0
b1101 6
1B
07
b0 "
b0 2
b0 !
0;
0>
1A
b1101 ,
b0 *
b100 .
b100 4
b100 $
b100 +
#17400
b101 '
b0 I
b0 G
b100 H
#17600
b101 L
#17800
1?
19
b1110 0
b1110 6
0<
b1 "
b1 2
b1 !
1;
b1 *
b101 .
b101 4
b101 $
b101 +
#18000
b110 '
b1 I
b1 G
b101 H
#18200
b110 L
#18400
0/
b1 1
1E
07
09
1B
1<
b1111 0
b1111 6
1?
08
b0 "
b0 2
b0 !
0;
1>
b1111 ,
b0 *
b110 .
b110 4
b110 $
b110 +
#18600
b111 '
b0 I
b0 G
b110 H
#18800
b111 L
#19000
1/
b0 1
0E
17
0B
18
0?
19
b0 0
b0 6
0<
b1 "
b1 2
b1 !
1;
b1 *
b111 .
b111 4
b111 $
b111 +
#19200
b11111111111111111111111111111010 &
b11111111111111111111111111111000 '
b1 I
b1 G
b111 H
#19400
b1000 L
b1010 K
#19600
08
b0 1
0B
07
0E
09
b1000 "
b1000 2
0<
b10 0
b10 6
1?
b1000 !
0;
0>
0A
1D
b1010 ,
b1000 .
b1000 4
b1000 *
0:
1=
b1000 $
b1000 +
b1010 #
b1010 )
b1010 3
#19800
b11111111111111111111111111111001 '
b1000 I
b1000 G
b1000 H
b1010 F
#20000
b1001 L
#20200
b11 0
b11 6
1<
1;
b1011 ,
b1001 .
b1001 4
b1001 $
b1001 +
#20400
b11111111111111111111111111111010 '
b1001 H
#20600
b1010 L
#20800
1B
18
0<
b100 0
b100 6
0?
b1010 "
b1010 2
b1010 !
0;
1>
b1010 ,
b1010 *
b1010 .
b1010 4
b1010 $
b1010 +
#21000
b11111111111111111111111111111011 '
b1010 I
b1010 G
b1010 H
#21200
b1011 L
#21400
b101 0
b101 6
1<
1;
b1011 ,
b1011 .
b1011 4
b1011 $
b1011 +
#21600
b11111111111111111111111111111100 '
b1011 H
#21800
b1100 L
#22000
b0 1
08
0E
0<
1?
b110 0
b110 6
1B
07
b1000 "
b1000 2
b1000 !
0;
0>
1A
b1110 ,
b1000 *
b1100 .
b1100 4
b1100 $
b1100 +
#22200
b11111111111111111111111111111101 '
b1000 I
b1000 G
b1100 H
#22400
b1101 L
#22600
b111 0
b111 6
1<
1;
b1111 ,
b1101 .
b1101 4
b1101 $
b1101 +
#22800
b11111111111111111111111111111110 '
b1101 H
#23000
b1110 L
#23200
b1 1
1E
17
0B
18
0<
b1000 0
b1000 6
0?
b1010 "
b1010 2
b1010 !
0;
1>
b1110 ,
b1010 *
b1110 .
b1110 4
b1110 $
b1110 +
#23400
b11111111111111111111111111111111 '
b1010 I
b1010 G
b1110 H
#23600
b1111 L
#23800
b1001 0
b1001 6
1<
1;
b1111 ,
b1111 .
b1111 4
b1111 $
b1111 +
#24000
b0 '
b1111 H
#24200
b0 L
#24400
0/
08
b1 1
0<
1?
0B
07
b1010 0
b1010 6
1E
b0 "
b0 2
b0 !
0;
0>
0A
0D
b1010 ,
b0 *
b0 .
b0 4
b0 $
b0 +
#24600
b1 '
b0 I
b0 G
b0 H
#24800
b1 L
#25000
b1011 0
b1011 6
1<
1;
b1011 ,
b1 .
b1 4
b1 $
b1 +
#25200
b10 '
b1 H
#25400
b10 L
#25600
1B
18
0<
b1100 0
b1100 6
0?
b10 "
b10 2
b10 !
0;
1>
b1010 ,
b10 *
b10 .
b10 4
b10 $
b10 +
#25800
b11 '
b10 I
b10 G
b10 H
#26000
b11 L
#26200
b1101 0
b1101 6
1<
1;
b1011 ,
b11 .
b11 4
b11 $
b11 +
#26400
b100 '
b11 H
#26600
b100 L
#26800
0/
b1 1
08
1E
0<
1?
b1110 0
b1110 6
1B
07
b0 "
b0 2
b0 !
0;
0>
1A
b1110 ,
b0 *
b100 .
b100 4
b100 $
b100 +
#27000
b101 '
b0 I
b0 G
b100 H
#27200
b101 L
#27400
b1111 0
b1111 6
1<
1;
b1111 ,
b101 .
b101 4
b101 $
b101 +
#27600
b110 '
b101 H
#27800
b110 L
#28000
1/
b0 1
0E
17
0B
18
0<
b0 0
b0 6
0?
b10 "
b10 2
b10 !
0;
1>
b1110 ,
b10 *
b110 .
b110 4
b110 $
b110 +
#28200
b111 '
b10 I
b10 G
b110 H
#28400
b111 L
#28600
b1 0
b1 6
1<
1;
b1111 ,
b111 .
b111 4
b111 $
b111 +
#28800
b11111111111111111111111111111011 &
b11111111111111111111111111111000 '
b111 H
#29000
b1000 L
b1011 K
#29200
1?
08
b0 1
0B
07
0E
09
b1000 "
b1000 2
b11 0
b11 6
1<
b1000 !
0;
0>
0A
1D
b1011 ,
b1000 .
b1000 4
b1000 *
1:
b1000 $
b1000 +
b1011 #
b1011 )
b1011 3
#29400
b11111111111111111111111111111001 '
b1000 I
b1000 G
b1000 H
b1011 F
#29600
b1001 L
#29800
1B
18
0?
19
b100 0
b100 6
0<
b1001 "
b1001 2
b1001 !
1;
b1001 *
b1001 .
b1001 4
b1001 $
b1001 +
#30000
b11111111111111111111111111111010 '
b1001 I
b1001 G
b1001 H
#30200
b1010 L
#30400
09
1<
b101 0
b101 6
0?
b1010 "
b1010 2
b1010 !
0;
1>
b1010 *
b1010 .
b1010 4
b1010 $
b1010 +
#30600
b11111111111111111111111111111011 '
b1010 I
b1010 G
b1010 H
#30800
b1011 L
#31000
1?
19
b110 0
b110 6
0<
b1011 "
b1011 2
b1011 !
1;
b1011 *
b1011 .
b1011 4
b1011 $
b1011 +
#31200
b11111111111111111111111111111100 '
b1011 I
b1011 G
b1011 H
#31400
b1100 L
#31600
08
b0 1
09
0E
1<
1?
b111 0
b111 6
1B
07
b1000 "
b1000 2
b1000 !
0;
0>
1A
b1111 ,
b1000 *
b1100 .
b1100 4
b1100 $
b1100 +
#31800
b11111111111111111111111111111101 '
b1000 I
b1000 G
b1100 H
#32000
b1101 L
#32200
b1 1
1E
17
0B
18
0?
19
b1000 0
b1000 6
0<
b1001 "
b1001 2
b1001 !
1;
b1001 *
b1101 .
b1101 4
b1101 $
b1101 +
#32400
b11111111111111111111111111111110 '
b1001 I
b1001 G
b1101 H
#32600
b1110 L
#32800
09
1<
b1001 0
b1001 6
0?
b1010 "
b1010 2
b1010 !
0;
1>
b1010 *
b1110 .
b1110 4
b1110 $
b1110 +
#33000
b11111111111111111111111111111111 '
b1010 I
b1010 G
b1110 H
#33200
b1111 L
#33400
1?
19
b1010 0
b1010 6
0<
b1011 "
b1011 2
b1011 !
1;
b1011 *
b1111 .
b1111 4
b1111 $
b1111 +
#33600
b0 '
b1011 I
b1011 G
b1111 H
#33800
b0 L
#34000
08
0/
09
b1 1
1<
1?
0B
07
b1011 0
b1011 6
1E
b0 "
b0 2
b0 !
0;
0>
0A
0D
b1011 ,
b0 *
b0 .
b0 4
b0 $
b0 +
#34200
b1 '
b0 I
b0 G
b0 H
#34400
b1 L
#34600
1B
18
0?
19
b1100 0
b1100 6
0<
b1 "
b1 2
b1 !
1;
b1 *
b1 .
b1 4
b1 $
b1 +
#34800
b10 '
b1 I
b1 G
b1 H
#35000
b10 L
#35200
09
1<
b1101 0
b1101 6
0?
b10 "
b10 2
b10 !
0;
1>
b10 *
b10 .
b10 4
b10 $
b10 +
#35400
b11 '
b10 I
b10 G
b10 H
#35600
b11 L
#35800
1?
19
b1110 0
b1110 6
0<
b11 "
b11 2
b11 !
1;
b11 *
b11 .
b11 4
b11 $
b11 +
#36000
b100 '
b11 I
b11 G
b11 H
#36200
b100 L
#36400
08
0/
b1 1
09
1E
1<
1?
b1111 0
b1111 6
1B
07
b0 "
b0 2
b0 !
0;
0>
1A
b1111 ,
b0 *
b100 .
b100 4
b100 $
b100 +
#36600
b101 '
b0 I
b0 G
b100 H
#36800
b101 L
#37000
1/
b0 1
0E
17
0B
18
0?
19
b0 0
b0 6
0<
b1 "
b1 2
b1 !
1;
b1 *
b101 .
b101 4
b101 $
b101 +
#37200
b110 '
b1 I
b1 G
b101 H
#37400
b110 L
#37600
09
1<
b1 0
b1 6
0?
b10 "
b10 2
b10 !
0;
1>
b10 *
b110 .
b110 4
b110 $
b110 +
#37800
b111 '
b10 I
b10 G
b110 H
#38000
b111 L
#38200
1?
19
b10 0
b10 6
0<
b11 "
b11 2
b11 !
1;
b11 *
b111 .
b111 4
b111 $
b111 +
#38400
b11111111111111111111111111111100 &
b11111111111111111111111111111000 '
b11 I
b11 G
b111 H
#38600
b1000 L
b1100 K
#38800
07
b0 1
0E
09
08
b1000 "
b1000 2
0<
0?
b100 0
b100 6
1B
b1000 !
0;
0>
0A
1D
b1100 ,
b1000 .
b1000 4
b1000 *
0:
0=
1@
b1000 $
b1000 +
b1100 #
b1100 )
b1100 3
#39000
b11111111111111111111111111111001 '
b1000 I
b1000 G
b1000 H
b1100 F
#39200
b1001 L
#39400
b101 0
b101 6
1<
1;
b1101 ,
b1001 .
b1001 4
b1001 $
b1001 +
#39600
b11111111111111111111111111111010 '
b1001 H
#39800
b1010 L
#40000
0<
b110 0
b110 6
1?
0;
1>
b1110 ,
b1010 .
b1010 4
b1010 $
b1010 +
#40200
b11111111111111111111111111111011 '
b1010 H
#40400
b1011 L
#40600
b111 0
b111 6
1<
1;
b1111 ,
b1011 .
b1011 4
b1011 $
b1011 +
#40800
b11111111111111111111111111111100 '
b1011 H
#41000
b1100 L
#41200
b1 1
1E
17
0<
0?
b1000 0
b1000 6
0B
b1100 "
b1100 2
b1100 !
0;
0>
1A
b1100 ,
b1100 *
b1100 .
b1100 4
b1100 $
b1100 +
#41400
b11111111111111111111111111111101 '
b1100 I
b1100 G
b1100 H
#41600
b1101 L
#41800
b1001 0
b1001 6
1<
1;
b1101 ,
b1101 .
b1101 4
b1101 $
b1101 +
#42000
b11111111111111111111111111111110 '
b1101 H
#42200
b1110 L
#42400
0<
b1010 0
b1010 6
1?
0;
1>
b1110 ,
b1110 .
b1110 4
b1110 $
b1110 +
#42600
b11111111111111111111111111111111 '
b1110 H
#42800
b1111 L
#43000
b1011 0
b1011 6
1<
1;
b1111 ,
b1111 .
b1111 4
b1111 $
b1111 +
#43200
b0 '
b1111 H
#43400
b0 L
#43600
0/
07
b1 1
0<
0?
1B
b1100 0
b1100 6
1E
b0 "
b0 2
b0 !
0;
0>
0A
0D
b1100 ,
b0 *
b0 .
b0 4
b0 $
b0 +
#43800
b1 '
b0 I
b0 G
b0 H
#44000
b1 L
#44200
b1101 0
b1101 6
1<
1;
b1101 ,
b1 .
b1 4
b1 $
b1 +
#44400
b10 '
b1 H
#44600
b10 L
#44800
0<
b1110 0
b1110 6
1?
0;
1>
b1110 ,
b10 .
b10 4
b10 $
b10 +
#45000
b11 '
b10 H
#45200
b11 L
#45400
b1111 0
b1111 6
1<
1;
b1111 ,
b11 .
b11 4
b11 $
b11 +
#45600
b100 '
b11 H
#45800
b100 L
#46000
1/
b0 1
0E
17
0<
0?
b0 0
b0 6
0B
b100 "
b100 2
b100 !
0;
0>
1A
b1100 ,
b100 *
b100 .
b100 4
b100 $
b100 +
#46200
b101 '
b100 I
b100 G
b100 H
#46400
b101 L
#46600
b1 0
b1 6
1<
1;
b1101 ,
b101 .
b101 4
b101 $
b101 +
#46800
b110 '
b101 H
#47000
b110 L
#47200
0<
b10 0
b10 6
1?
0;
1>
b1110 ,
b110 .
b110 4
b110 $
b110 +
#47400
b111 '
b110 H
#47600
b111 L
#47800
b11 0
b11 6
1<
1;
b1111 ,
b111 .
b111 4
b111 $
b111 +
#48000
b11111111111111111111111111111101 &
b11111111111111111111111111111000 '
b111 H
#48200
b1000 L
b1101 K
#48400
0?
07
b0 1
1B
0E
09
b1000 "
b1000 2
b101 0
b101 6
1<
b1000 !
0;
0>
0A
1D
b1101 ,
b1000 .
b1000 4
b1000 *
1:
b1000 $
b1000 +
b1101 #
b1101 )
b1101 3
#48600
b11111111111111111111111111111001 '
b1000 I
b1000 G
b1000 H
b1101 F
#48800
b1001 L
#49000
1?
19
b110 0
b110 6
0<
b1001 "
b1001 2
b1001 !
1;
b1001 *
b1001 .
b1001 4
b1001 $
b1001 +
#49200
b11111111111111111111111111111010 '
b1001 I
b1001 G
b1001 H
#49400
b1010 L
#49600
b0 1
0E
07
09
1B
1<
b111 0
b111 6
1?
08
b1000 "
b1000 2
b1000 !
0;
1>
b1111 ,
b1000 *
b1010 .
b1010 4
b1010 $
b1010 +
#49800
b11111111111111111111111111111011 '
b1000 I
b1000 G
b1010 H
#50000
b1011 L
#50200
b1 1
1E
17
0B
18
0?
19
b1000 0
b1000 6
0<
b1001 "
b1001 2
b1001 !
1;
b1001 *
b1011 .
b1011 4
b1011 $
b1011 +
#50400
b11111111111111111111111111111100 '
b1001 I
b1001 G
b1011 H
#50600
b1100 L
#50800
09
1<
0?
08
b1001 0
b1001 6
0B
b1100 "
b1100 2
b1100 !
0;
0>
1A
b1101 ,
b1100 *
b1100 .
b1100 4
b1100 $
b1100 +
#51000
b11111111111111111111111111111101 '
b1100 I
b1100 G
b1100 H
#51200
b1101 L
#51400
1?
19
b1010 0
b1010 6
0<
b1101 "
b1101 2
b1101 !
1;
b1101 *
b1101 .
b1101 4
b1101 $
b1101 +
#51600
b11111111111111111111111111111110 '
b1101 I
b1101 G
b1101 H
#51800
b1110 L
#52000
09
0B
1<
b1011 0
b1011 6
1?
08
b1100 "
b1100 2
b1100 !
0;
1>
b1111 ,
b1100 *
b1110 .
b1110 4
b1110 $
b1110 +
#52200
b11111111111111111111111111111111 '
b1100 I
b1100 G
b1110 H
#52400
b1111 L
#52600
1B
18
0?
19
b1100 0
b1100 6
0<
b1101 "
b1101 2
b1101 !
1;
b1101 *
b1111 .
b1111 4
b1111 $
b1111 +
#52800
b0 '
b1101 I
b1101 G
b1111 H
#53000
b0 L
#53200
0/
07
09
b1 1
1<
0?
08
1B
b1101 0
b1101 6
1E
b0 "
b0 2
b0 !
0;
0>
0A
0D
b1101 ,
b0 *
b0 .
b0 4
b0 $
b0 +
#53400
b1 '
b0 I
b0 G
b0 H
#53600
b1 L
#53800
1?
19
b1110 0
b1110 6
0<
b1 "
b1 2
b1 !
1;
b1 *
b1 .
b1 4
b1 $
b1 +
#54000
b10 '
b1 I
b1 G
b1 H
#54200
b10 L
#54400
0/
b1 1
1E
07
09
1B
1<
b1111 0
b1111 6
1?
08
b0 "
b0 2
b0 !
0;
1>
b1111 ,
b0 *
b10 .
b10 4
b10 $
b10 +
#54600
b11 '
b0 I
b0 G
b10 H
#54800
b11 L
#55000
1/
b0 1
0E
17
0B
18
0?
19
b0 0
b0 6
0<
b1 "
b1 2
b1 !
1;
b1 *
b11 .
b11 4
b11 $
b11 +
#55200
b100 '
b1 I
b1 G
b11 H
#55400
b100 L
#55600
09
1<
0?
08
b1 0
b1 6
0B
b100 "
b100 2
b100 !
0;
0>
1A
b1101 ,
b100 *
b100 .
b100 4
b100 $
b100 +
#55800
b101 '
b100 I
b100 G
b100 H
#56000
b101 L
#56200
1?
19
b10 0
b10 6
0<
b101 "
b101 2
b101 !
1;
b101 *
b101 .
b101 4
b101 $
b101 +
#56400
b110 '
b101 I
b101 G
b101 H
#56600
b110 L
#56800
09
0B
1<
b11 0
b11 6
1?
08
b100 "
b100 2
b100 !
0;
1>
b1111 ,
b100 *
b110 .
b110 4
b110 $
b110 +
#57000
b111 '
b100 I
b100 G
b110 H
#57200
b111 L
#57400
1B
18
0?
19
b100 0
b100 6
0<
b101 "
b101 2
b101 !
1;
b101 *
b111 .
b111 4
b111 $
b111 +
#57600
b11111111111111111111111111111110 &
b11111111111111111111111111111000 '
b101 I
b101 G
b111 H
#57800
b1000 L
b1110 K
#58000
07
08
b0 1
1B
0E
09
b1000 "
b1000 2
0<
b110 0
b110 6
1?
b1000 !
0;
0>
0A
1D
b1110 ,
b1000 .
b1000 4
b1000 *
0:
1=
b1000 $
b1000 +
b1110 #
b1110 )
b1110 3
#58200
b11111111111111111111111111111001 '
b1000 I
b1000 G
b1000 H
b1110 F
#58400
b1001 L
#58600
b111 0
b111 6
1<
1;
b1111 ,
b1001 .
b1001 4
b1001 $
b1001 +
#58800
b11111111111111111111111111111010 '
b1001 H
#59000
b1010 L
#59200
b1 1
1E
17
0B
18
0<
b1000 0
b1000 6
0?
b1010 "
b1010 2
b1010 !
0;
1>
b1110 ,
b1010 *
b1010 .
b1010 4
b1010 $
b1010 +
#59400
b11111111111111111111111111111011 '
b1010 I
b1010 G
b1010 H
#59600
b1011 L
#59800
b1001 0
b1001 6
1<
1;
b1111 ,
b1011 .
b1011 4
b1011 $
b1011 +
#60000
b11111111111111111111111111111100 '
b1011 H
#60200
b1100 L
#60400
08
0<
1?
b1010 0
b1010 6
0B
b1100 "
b1100 2
b1100 !
0;
0>
1A
b1110 ,
b1100 *
b1100 .
b1100 4
b1100 $
b1100 +
#60600
b11111111111111111111111111111101 '
b1100 I
b1100 G
b1100 H
#60800
b1101 L
#61000
b1011 0
b1011 6
1<
1;
b1111 ,
b1101 .
b1101 4
b1101 $
b1101 +
#61200
b11111111111111111111111111111110 '
b1101 H
#61400
b1110 L
#61600
1B
18
0<
b1100 0
b1100 6
0?
b1110 "
b1110 2
b1110 !
0;
1>
b1110 ,
b1110 *
b1110 .
b1110 4
b1110 $
b1110 +
#61800
b11111111111111111111111111111111 '
b1110 I
b1110 G
b1110 H
#62000
b1111 L
#62200
b1101 0
b1101 6
1<
1;
b1111 ,
b1111 .
b1111 4
b1111 $
b1111 +
#62400
b0 '
b1111 H
#62600
b0 L
#62800
0/
07
08
b1 1
0<
1?
1B
b1110 0
b1110 6
1E
b0 "
b0 2
b0 !
0;
0>
0A
0D
b1110 ,
b0 *
b0 .
b0 4
b0 $
b0 +
#63000
b1 '
b0 I
b0 G
b0 H
#63200
b1 L
#63400
b1111 0
b1111 6
1<
1;
b1111 ,
b1 .
b1 4
b1 $
b1 +
#63600
b10 '
b1 H
#63800
b10 L
#64000
1/
b0 1
0E
17
0B
18
0<
b0 0
b0 6
0?
b10 "
b10 2
b10 !
0;
1>
b1110 ,
b10 *
b10 .
b10 4
b10 $
b10 +
#64200
b11 '
b10 I
b10 G
b10 H
#64400
b11 L
#64600
b1 0
b1 6
1<
1;
b1111 ,
b11 .
b11 4
b11 $
b11 +
#64800
b100 '
b11 H
#65000
b100 L
#65200
08
0<
1?
b10 0
b10 6
0B
b100 "
b100 2
b100 !
0;
0>
1A
b1110 ,
b100 *
b100 .
b100 4
b100 $
b100 +
#65400
b101 '
b100 I
b100 G
b100 H
#65600
b101 L
#65800
b11 0
b11 6
1<
1;
b1111 ,
b101 .
b101 4
b101 $
b101 +
#66000
b110 '
b101 H
#66200
b110 L
#66400
1B
18
0<
b100 0
b100 6
0?
b110 "
b110 2
b110 !
0;
1>
b1110 ,
b110 *
b110 .
b110 4
b110 $
b110 +
#66600
b111 '
b110 I
b110 G
b110 H
#66800
b111 L
#67000
b101 0
b101 6
1<
1;
b1111 ,
b111 .
b111 4
b111 $
b111 +
#67200
b11111111111111111111111111111111 &
b11111111111111111111111111111000 '
b111 H
#67400
b1000 L
b1111 K
#67600
07
1?
08
b0 1
1B
0E
09
b1000 "
b1000 2
b111 0
b111 6
1<
b1000 !
0;
0>
0A
1D
b1000 .
b1000 4
b1000 *
1:
b1000 $
b1000 +
b1111 #
b1111 )
b1111 3
#67800
b11111111111111111111111111111001 '
b1000 I
b1000 G
b1000 H
b1111 F
#68000
b1001 L
#68200
b1 1
1E
17
0B
18
0?
19
b1000 0
b1000 6
0<
b1001 "
b1001 2
b1001 !
1;
b1001 *
b1001 .
b1001 4
b1001 $
b1001 +
#68400
b11111111111111111111111111111010 '
b1001 I
b1001 G
b1001 H
#68600
b1010 L
#68800
09
1<
b1001 0
b1001 6
0?
b1010 "
b1010 2
b1010 !
0;
1>
b1010 *
b1010 .
b1010 4
b1010 $
b1010 +
#69000
b11111111111111111111111111111011 '
b1010 I
b1010 G
b1010 H
#69200
b1011 L
#69400
1?
19
b1010 0
b1010 6
0<
b1011 "
b1011 2
b1011 !
1;
b1011 *
b1011 .
b1011 4
b1011 $
b1011 +
#69600
b11111111111111111111111111111100 '
b1011 I
b1011 G
b1011 H
#69800
b1100 L
#70000
08
09
1<
1?
b1011 0
b1011 6
0B
b1100 "
b1100 2
b1100 !
0;
0>
1A
b1100 *
b1100 .
b1100 4
b1100 $
b1100 +
#70200
b11111111111111111111111111111101 '
b1100 I
b1100 G
b1100 H
#70400
b1101 L
#70600
1B
18
0?
19
b1100 0
b1100 6
0<
b1101 "
b1101 2
b1101 !
1;
b1101 *
b1101 .
b1101 4
b1101 $
b1101 +
#70800
b11111111111111111111111111111110 '
b1101 I
b1101 G
b1101 H
#71000
b1110 L
#71200
09
1<
b1101 0
b1101 6
0?
b1110 "
b1110 2
b1110 !
0;
1>
b1110 *
b1110 .
b1110 4
b1110 $
b1110 +
#71400
b11111111111111111111111111111111 '
b1110 I
b1110 G
b1110 H
#71600
b1111 L
#71800
1?
19
b1110 0
b1110 6
0<
b1111 "
b1111 2
b1111 !
1;
b1111 *
b1111 .
b1111 4
b1111 $
b1111 +
#72000
b0 '
b1111 I
b1111 G
b1111 H
#72200
b0 L
