Homework/Homework-03/E15Process_tb.vcd
$date
	Thu Sep 29 21:23:17 2022
$end
$version
	Icarus Verilog
$end
$timescale
	100ps
$end
$scope module E15Process_TB $end
$var reg 1 ! clk $end
$scope module proc $end
$var wire 1 " addNotSub $end
$var wire 1 ! clk $end
$var wire 4 # storeVal [3:0] $end
$var wire 2 $ src [1:0] $end
$var wire 1 % pcz $end
$var wire 4 & pcRes [3:0] $end
$var wire 4 ' pcIncr [3:0] $end
$var wire 4 ( operand2 [3:0] $end
$var wire 4 ) operand1 [3:0] $end
$var wire 4 * opCode [3:0] $end
$var wire 4 + immData [3:0] $end
$var wire 2 , dst [1:0] $end
$var wire 1 - aluOutputZero $end
$var wire 4 . aluOutput [3:0] $end
$var reg 4 / pc [3:0] $end
$var reg 4 0 r0 [3:0] $end
$var reg 4 1 r1 [3:0] $end
$var reg 4 2 r2 [3:0] $end
$var reg 4 3 r3 [3:0] $end
$var reg 1 4 zFlag $end
$scope module dataALU $end
$var wire 1 " addNotSub $end
$var wire 4 5 dst [3:0] $end
$var wire 4 6 src [3:0] $end
$var wire 1 - zFlag $end
$var wire 4 7 res [3:0] $end
$var wire 1 8 Cout $end
$scope module the_adder $end
$var wire 4 9 A [3:0] $end
$var wire 4 : B [3:0] $end
$var wire 1 ; Cin $end
$var wire 1 < temp2 $end
$var wire 1 = temp1 $end
$var wire 1 > temp0 $end
$var wire 4 ? S [3:0] $end
$var wire 1 8 Cout $end
$scope module first $end
$var wire 1 @ A $end
$var wire 1 A B $end
$var wire 1 ; Cin $end
$var wire 1 > Cout $end
$var wire 1 B S $end
$upscope $end
$scope module fourth $end
$var wire 1 C A $end
$var wire 1 D B $end
$var wire 1 8 Cout $end
$var wire 1 E S $end
$var wire 1 < Cin $end
$upscope $end
$scope module second $end
$var wire 1 F A $end
$var wire 1 G B $end
$var wire 1 > Cin $end
$var wire 1 = Cout $end
$var wire 1 H S $end
$upscope $end
$scope module third $end
$var wire 1 I A $end
$var wire 1 J B $end
$var wire 1 = Cin $end
$var wire 1 < Cout $end
$var wire 1 K S $end
$upscope $end
$upscope $end
$upscope $end
$scope module pcALU $end
$var wire 1 L addNotSub $end
$var wire 4 M dst [3:0] $end
$var wire 4 N src [3:0] $end
$var wire 1 % zFlag $end
$var wire 4 O res [3:0] $end
$var wire 1 P Cout $end
$scope module the_adder $end
$var wire 4 Q A [3:0] $end
$var wire 4 R B [3:0] $end
$var wire 1 S Cin $end
$var wire 1 T temp2 $end
$var wire 1 U temp1 $end
$var wire 1 V temp0 $end
$var wire 4 W S [3:0] $end
$var wire 1 P Cout $end
$scope module first $end
$var wire 1 X A $end
$var wire 1 Y B $end
$var wire 1 S Cin $end
$var wire 1 V Cout $end
$var wire 1 Z S $end
$upscope $end
$scope module fourth $end
$var wire 1 [ A $end
$var wire 1 \ B $end
$var wire 1 P Cout $end
$var wire 1 ] S $end
$var wire 1 T Cin $end
$upscope $end
$scope module second $end
$var wire 1 ^ A $end
$var wire 1 _ B $end
$var wire 1 V Cin $end
$var wire 1 U Cout $end
$var wire 1 ` S $end
$upscope $end
$scope module third $end
$var wire 1 a A $end
$var wire 1 b B $end
$var wire 1 U Cin $end
$var wire 1 T Cout $end
$var wire 1 c S $end
$upscope $end
$upscope $end
$upscope $end
$upscope $end
$upscope $end
$enddefinitions $end
#0
$dumpvars
0c
0b
0a
0`
0_
0^
0]
0\
0[
1Z
0Y
1X
b1 W
0V
0U
0T
0S
b0 R
b1 Q
0P
b1 O
b0 N
b1 M
1L
xK
0J
xI
xH
0G
xF
xE
1D
xC
xB
0A
x@
bx ?
x>
x=
x<
1;
b1000 :
bx 9
x8
bx 7
b111 6
bx 5
x4
bx 3
bx 2
bx 1
bx 0
b0 /
bx .
x-
b0 ,
b111 +
b1001 *
b111 )
bx (
b1 '
b1 &
0%
b0 $
b111 #
0"
0!
$end
#30
1A
1J
1`
1>
b1101 :
1V
bx .
bx 7
bx ?
xB
0%
b10 &
b10 O
b10 W
0Z
b10 #
b10 )
b10 6
x@
xF
xI
xC
b1 ,
b10 +
1Y
bx (
bx 5
bx 9
b1 R
b1 /
b1 N
b111 0
1!
#60
0!
#90
18
1<
1=
1G
xB
bx .
bx 7
bx ?
xH
b1111 :
0V
0c
1Z
0%
b11 &
b11 O
b11 W
1`
0U
x@
xF
xI
xC
b0 #
b0 )
b0 6
bx (
bx 5
bx 9
b10 ,
b0 +
0Y
1_
b10 R
b10 /
b10 N
b10 1
1!
#120
0!
#150
1c
1U
x-
xB
xH
xK
bx .
bx 7
bx ?
xE
0%
0`
1V
x@
xF
xI
xC
b100 &
b100 O
b100 W
0Z
bx (
bx 5
bx 9
b11 ,
1Y
b11 R
b11 /
b11 N
b0 2
1!
#180
0!
#210
0<
1H
0=
08
1B
1K
0-
b111 .
b111 7
b111 ?
0E
0>
0D
0V
0]
0@
0F
0I
0C
0;
b111 :
b111 )
b111 6
1Z
0`
0U
0%
b101 &
b101 O
b101 W
1c
0T
b0 (
b0 5
b0 9
1"
b111 #
b1010 *
b10 ,
0Y
0_
1b
b100 R
b100 /
b100 N
b0 3
1!
#240
0!
#270
b1 #
0E
0>
0=
0<
0-
1B
0H
b1 .
b1 7
b1 ?
0K
0G
0J
1`
b1 :
1V
0@
0F
0I
b1 )
b1 6
b110 &
b110 O
b110 W
0Z
b0 (
b0 5
b0 9
b1011 *
b11 ,
b1 +
1Y
b101 R
b101 /
b101 N
b111 2
04
1!
#300
0!
#330
18
1<
0H
0>
1=
b1 #
0K
0E
0]
0T
0-
b1 .
b1 7
b1 ?
1B
0A
1G
1J
1D
0V
1c
1F
1;
b1110 :
1Z
b111 &
b111 O
b111 W
1`
0U
b10 (
b10 5
b10 9
0"
b1 )
b1 6
b1110 *
b11 $
b1 ,
b0 +
0Y
1_
b110 R
b110 /
b110 N
b1 3
1!
#360
0!
#390
1]
1-
1T
0H
b0 #
0%
0c
0G
0J
1>
1U
b1000 :
0B
b0 .
b0 7
b0 ?
0K
0`
1V
b111 )
b111 6
1@
1I
b1000 &
b1000 O
b1000 W
0Z
b111 (
b111 5
b111 9
b10 *
b0 $
b0 ,
b10 +
1Y
b111 R
b111 /
b111 N
1!
#420
0!
#450
0V
0X
1a
1[
0Z
0`
0U
1c
0T
0%
b100 &
b100 O
b100 W
0]
1P
b1100 '
b1100 M
b1100 Q
b0 *
b1100 +
0Y
0_
0b
1\
b1000 R
b1000 /
b1000 N
1!
#480
0!
#510
b1110 #
1E
08
1H
1K
1Z
0-
b1110 .
b1110 7
b1110 ?
0B
1A
1G
1J
0D
0T
0P
0;
b111 :
1F
1I
1X
0a
0[
1c
b101 &
b101 O
b101 W
0]
1"
b111 (
b111 5
b111 9
b1 '
b1 M
b1 Q
b1010 *
b10 ,
b0 +
1b
0\
b100 R
b100 /
b100 N
1!
#540
0!
#570
0-
0K
1H
b10 #
0=
0<
1>
08
0B
b10 .
b10 7
b10 ?
0E
0G
0J
0F
0I
1`
b1 :
1V
1@
0C
b1 )
b1 6
b110 &
b110 O
b110 W
0Z
b1 (
b1 5
b1 9
b1011 *
b11 ,
b1 +
1Y
b101 R
b101 /
b101 N
b1110 2
1!
#600
0!
#630
18
1-
0H
1<
b0 #
1=
0K
0E
0]
0T
b0 .
b0 7
b0 ?
0B
1A
0G
1J
1D
0V
1c
0@
1F
1;
b1101 :
1Z
b111 &
b111 O
b111 W
1`
0U
b10 (
b10 5
b10 9
0"
b10 )
b10 6
b1110 *
b11 $
b1 ,
b0 +
0Y
1_
b110 R
b110 /
b110 N
b10 3
1!
#660
0!
#690
1]
1T
b0 #
0c
0A
0J
1U
b1000 :
0B
1-
b0 .
b0 7
b0 ?
0K
0`
0X
1^
0V
b10 '
b10 M
b10 Q
b111 )
b111 6
1@
1I
b1001 &
b1001 O
b1001 W
1Z
b111 (
b111 5
b111 9
b10 *
b0 $
b0 ,
b10 +
1Y
b111 R
b111 /
b111 N
14
1!
#720
0!
#750
0U
0^
0`
0c
0T
b1001 &
b1001 O
b1001 W
1]
0P
b0 '
b0 M
b0 Q
b0 *
b0 +
0_
0b
1\
b1001 R
b1001 /
b1001 N
1!
