Homework/Homework-02/hw2b/binary_to_gray.vcd
$date
	Wed Sep 21 23:07:53 2022
$end
$version
	Icarus Verilog
$end
$timescale
	100ps
$end
$scope module binary_to_gray_tb $end
$var wire 4 ! G [3:0] $end
$var wire 4 " B [3:0] $end
$var integer 32 # k [31:0] $end
$scope module the_circuit $end
$var wire 4 $ B [3:0] $end
$var wire 4 % G [3:0] $end
$upscope $end
$upscope $end
$enddefinitions $end
#0
$dumpvars
b0 %
b0 $
b0 #
b0 "
b0 !
$end
#100
b1 !
b1 %
b1 "
b1 $
b1 #
#200
b11 !
b11 %
b10 "
b10 $
b10 #
#300
b10 !
b10 %
b11 "
b11 $
b11 #
#400
b110 !
b110 %
b100 "
b100 $
b100 #
#500
b111 !
b111 %
b101 "
b101 $
b101 #
#600
b101 !
b101 %
b110 "
b110 $
b110 #
#700
b100 !
b100 %
b111 "
b111 $
b111 #
#800
b1100 !
b1100 %
b1000 "
b1000 $
b1000 #
#900
b1101 !
b1101 %
b1001 "
b1001 $
b1001 #
#1000
b1111 !
b1111 %
b1010 "
b1010 $
b1010 #
#1100
b1110 !
b1110 %
b1011 "
b1011 $
b1011 #
#1200
b1010 !
b1010 %
b1100 "
b1100 $
b1100 #
#1300
b1011 !
b1011 %
b1101 "
b1101 $
b1101 #
#1400
b1001 !
b1001 %
b1110 "
b1110 $
b1110 #
#1500
b1000 !
b1000 %
b1111 "
b1111 $
b1111 #
#1600
b0 !
b0 %
b0 "
b0 $
b10000 #
